…
``` r
small_lm <- lm(mpg ~ ., data = mtcars) 
obj_size(small_lm)
#> 22,224 B
```

We don’t want to end up saving this new `in_house_model()` on disk, when
we could have something like `small_lm` that takes up less memory. So
what the heck is going on here? We can examine this with the `butcher`
package:

``` r
big_lm <- in_house_model()
butcher::weigh(big_lm, threshold = 0, units = "MB")
#> # A tibble: 25 x 2
#>    object            size
#>    <chr>            <dbl>
#>  1 terms         4.01    
#>  2 qr.qr         0.00666 
#>  3 residuals     0.00286 
#>  4 fitted.values 0.00286 
#>  5 effects       0.0014  
#>  6 coefficients  0.00109 
#>  7 call          0.000728
#>  8 model.mpg     0.000304
#>  9 model.cyl     0.000304
#> 10 model.disp    0.000304
#> # … with 15 more rows
```
The problem here is in the `terms` component of `big_lm`. Because of how
`lm` is implemented in the `stats` package, the environment in which the
`lm` model was created was carried along in the model output. To remove
this extraneous component, we leverage the `axe_env` generic within
`butcher`. In other words,

``` r
cleaned_lm <- butcher::axe_env(big_lm)
```

Comparing it against our `small_lm`, we’ll find:

``` r
butcher::weigh(cleaned_lm, threshold = 0, units = "MB")
#> # A tibble: 25 x 2
#>    object            size
#>    <chr>            <dbl>
#>  1 terms         0.00781 
#>  2 qr.qr         0.00666 
#>  3 residuals     0.00286 
#>  4 fitted.values 0.00286 
#>  5 effects       0.0014  
#>  6 coefficients  0.00109 
#>  7 call          0.000728
#>  8 model.mpg     0.000304
#>  9 model.cyl     0.000304
#> 10 model.disp    0.000304
#> # … with 15 more rows
```

…it now takes the same memory on disk as `small_lm`:

``` r
butcher::weigh(small_lm, threshold = 0, units = "MB")
#> # A tibble: 25 x 2
#>    object            size
#>    <chr>            <dbl>
#>  1 terms         0.00781 
#>  2 qr.qr         0.00666 
#>  3 residuals     0.00286 
#>  4 fitted.values 0.00286 
#>  5 effects       0.0014  
#>  6 coefficients  0.00109 
#>  7 call          0.000728
#>  8 model.mpg     0.000304
#>  9 model.cyl     0.000304
#> 10 model.disp    0.000304
#> # … with 15 more rows
```
…
