…
``` r
small_lm <- lm(mpg ~ ., data = mtcars)
obj_size(small_lm)
#> 22.22 kB
```

To understand which part of our original model object is taking up the
most memory, we leverage the
[`weigh()`](https://butcher.tidymodels.org/dev/reference/weigh.md)
function:

``` r
big_lm <- our_model()
weigh(big_lm)
#> # A tibble: 25 × 2
#>    object            size
#>    <chr>            <dbl>
#>  1 terms         8.01    
#>  2 qr.qr         0.00666 
#>  3 residuals     0.00286 
#>  4 fitted.values 0.00286 
#>  5 effects       0.0014  
#>  6 coefficients  0.00109 
#>  7 call          0.000728
#>  8 model.mpg     0.000304
#>  9 model.cyl     0.000304
#> 10 model.disp    0.000304
#> # ℹ 15 more rows
```
…
``` r
cleaned_lm <- butcher(big_lm, verbose = TRUE)
#> ✔ Memory released: 8.00 MB
#> ✖ Disabled: `print()`, `summary()`, and `fitted()`
```

Comparing it against our `small_lm`, we find:

``` r
weigh(cleaned_lm)
#> # A tibble: 25 × 2
#>    object           size
#>    <chr>           <dbl>
#>  1 terms        0.00771 
#>  2 qr.qr        0.00666 
#>  3 residuals    0.00286 
#>  4 effects      0.0014  
#>  5 coefficients 0.00109 
#>  6 model.mpg    0.000304
#>  7 model.cyl    0.000304
#>  8 model.disp   0.000304
#>  9 model.hp     0.000304
#> 10 model.drat   0.000304
#> # ℹ 15 more rows
```

And now it will take up about the same memory on disk as `small_lm`:

``` r
weigh(small_lm)
#> # A tibble: 25 × 2
#>    object            size
#>    <chr>            <dbl>
#>  1 terms         0.00763 
#>  2 qr.qr         0.00666 
#>  3 residuals     0.00286 
#>  4 fitted.values 0.00286 
#>  5 effects       0.0014  
#>  6 coefficients  0.00109 
#>  7 call          0.000728
#>  8 model.mpg     0.000304
#>  9 model.cyl     0.000304
#> 10 model.disp    0.000304
#> # ℹ 15 more rows
```
…
