Model Butcher • butcher
…
library(lobstr)
obj_size(our_model())
#> 8,022,440 B

When, in fact, it should only require:

small_lm <- lm(mpg ~ ., data = mtcars) 
obj_size(small_lm)
#> 22,224 B

To understand which part of our original model object is taking up the most memory, we leverage the weigh() function:

big_lm <- our_model()
butcher::weigh(big_lm)
#> # A tibble: 25 x 2
#>    object            size
#>    <chr>            <dbl>
#>  1 terms         8.01    
#>  2 qr.qr         0.00666 
#>  3 residuals     0.00286 
#>  4 fitted.values 0.00286 
#>  5 effects       0.0014  
#>  6 coefficients  0.00109 
#>  7 call          0.000728
#>  8 model.mpg     0.000304
#>  9 model.cyl     0.000304
#> 10 model.disp    0.000304
#> # … with 15 more rows

The problem here is in the terms component of our big_lm. Because of how lm is implemented in the stats package, the environment (in which our model was made) was also carried along in the fitted output. To remove this (mostly) extraneous component, we can use axe_env():

cleaned_lm <- butcher::axe_env(big_lm, verbose = TRUE)

Comparing it against our small_lm, we’ll find:

butcher::weigh(cleaned_lm)
#> # A tibble: 25 x 2
#>    object            size
#>    <chr>            <dbl>
#>  1 terms         0.00789 
#>  2 qr.qr         0.00666 
#>  3 residuals     0.00286 
#>  4 fitted.values 0.00286 
#>  5 effects       0.0014  
#>  6 coefficients  0.00109 
#>  7 call          0.000728
#>  8 model.mpg     0.000304
#>  9 model.cyl     0.000304
#> 10 model.disp    0.000304
#> # … with 15 more rows

…it now takes the same memory on disk as small_lm:

butcher::weigh(small_lm)
#> # A tibble: 25 x 2
#>    object            size
#>    <chr>            <dbl>
#>  1 terms         0.00781 
#>  2 qr.qr         0.00666 
#>  3 residuals     0.00286 
#>  4 fitted.values 0.00286 
#>  5 effects       0.0014  
#>  6 coefficients  0.00109 
#>  7 call          0.000728
#>  8 model.mpg     0.000304
#>  9 model.cyl     0.000304
#> 10 model.disp    0.000304
#> # … with 15 more rows
…
