Axing mixOmics models — axe-pls • butcher
…
# pls ------------------------------------------------------------------
fit_mod <- function() {
  boop <- runif(1e6)
  pls(matrix(rnorm(2e4), ncol = 2), rnorm(1e4), mode = "classic")
}

mod_fit <- fit_mod()
mod_res <- butcher(mod_fit)

weigh(mod_fit)
#> # A tibble: 24 × 2
#>    object             size
#>    <chr>             <dbl>
#>  1 X              0.842   
#>  2 Y              0.762   
#>  3 names.sample   0.681   
#>  4 variates.X     0.201   
#>  5 variates.Y     0.201   
#>  6 input.X        0.161   
#>  7 call           0.00129 
#>  8 loadings.X     0.000776
#>  9 loadings.Y     0.000696
#> 10 loadings.star1 0.0006  
#> # ℹ 14 more rows
weigh(mod_res)
#> # A tibble: 24 × 2
#>    object              size
#>    <chr>              <dbl>
#>  1 X               0.842   
#>  2 Y               0.762   
#>  3 variates.X      0.201   
#>  4 variates.Y      0.201   
#>  5 loadings.X      0.000776
#>  6 loadings.Y      0.000696
#>  7 loadings.star1  0.0006  
#>  8 mat.c           0.0006  
#>  9 loadings.star2  0.00052 
#> 10 prop_expl_var.X 0.000352
#> # ℹ 14 more rows
…
