…
## Examples

``` r
library(survival)

example_data <-
  tibble::tibble(
    time = rpois(1000, 2) + 1,
    status = rbinom(1000, 1, .5),
    x = rpois(1000, .5),
    covar = rbinom(1000, 1, .5)
  )

example_data
#> # A tibble: 1,000 × 4
#>     time status     x covar
#>    <dbl>  <int> <int> <int>
#>  1     4      1     1     0
#>  2     3      1     0     0
#>  3     3      1     1     0
#>  4     4      0     1     0
#>  5     3      0     2     1
#>  6     3      1     1     0
#>  7     3      1     1     1
#>  8     2      0     0     0
#>  9     3      1     1     1
#> 10     2      0     0     1
#> # ℹ 990 more rows
…
