…
wrapped_polr <- function(fit_fn) {
  boop <- runif(1e6)
  fit <- fit_fn(Sat ~ Infl + Type + Cont, weights = Freq, data = housing)
  return(fit)
}
polr_fit <- wrapped_polr(polr)
polr_fit_b <- butcher(polr_fit)
weigh(polr_fit)
#> # A tibble: 26 × 2
#>    object             size
#>    <chr>             <dbl>
#>  1 terms         25.6     
#>  2 fitted.values  0.00369 
#>  3 lp             0.00177 
#>  4 call           0.0014  
#>  5 model.Sat      0.000984
#>  6 model.Type     0.000984
#>  7 model.Infl     0.00092 
#>  8 model.Cont     0.000848
#>  9 coefficients   0.000688
#> 10 niter          0.000392
#> # ℹ 16 more rows
weigh(polr_fit_b)
#> # A tibble: 26 × 2
#>    object            size
#>    <chr>            <dbl>
#>  1 terms         0.00437 
#>  2 fitted.values 0.00369 
#>  3 lp            0.00177 
#>  4 call          0.0014  
#>  5 model.Sat     0.000984
#>  6 model.Type    0.000984
#>  7 model.Infl    0.00092 
#>  8 model.Cont    0.000848
#>  9 coefficients  0.000688
#> 10 niter         0.000392
#> # ℹ 16 more rows
```
