…
``` r
obj_size(old_lm)
#> 22.22 kB
```

Ideally, we want to avoid saving this new `in_house_model()` on disk,
when we could have something like `old_lm` that takes up less memory.
But what the heck is going on here? We can examine possible issues with
a fitted model object using the butcher package:

``` r
big_lm <- in_house_model()
weigh(big_lm, threshold = 0, units = "MB")
#> # A tibble: 25 × 2
#>    object            size
#>    <chr>            <dbl>
#>  1 terms         8.01    
#>  2 qr.qr         0.00666 
#>  3 residuals     0.00286 
#>  4 fitted.values 0.00286 
#>  5 effects       0.0014  
#>  6 coefficients  0.00109 
#>  7 call          0.000728
#>  8 model.mpg     0.000304
#>  9 model.cyl     0.000304
#> 10 model.disp    0.000304
#> # ℹ 15 more rows
```
…
``` r
cleaned_lm <- axe_env(big_lm, verbose = TRUE)
#> ✔ Memory released: 8.00 MB
```

Comparing it against our `old_lm`, we find:

``` r
weigh(cleaned_lm, threshold = 0, units = "MB")
#> # A tibble: 25 × 2
#>    object            size
#>    <chr>            <dbl>
#>  1 terms         0.00771 
#>  2 qr.qr         0.00666 
#>  3 residuals     0.00286 
#>  4 fitted.values 0.00286 
#>  5 effects       0.0014  
#>  6 coefficients  0.00109 
#>  7 call          0.000728
#>  8 model.mpg     0.000304
#>  9 model.cyl     0.000304
#> 10 model.disp    0.000304
#> # ℹ 15 more rows
```

And now it takes the same memory on disk:

``` r
weigh(old_lm, threshold = 0, units = "MB")
#> # A tibble: 25 × 2
#>    object            size
#>    <chr>            <dbl>
#>  1 terms         0.00763 
#>  2 qr.qr         0.00666 
#>  3 residuals     0.00286 
#>  4 fitted.values 0.00286 
#>  5 effects       0.0014  
#>  6 coefficients  0.00109 
#>  7 call          0.000728
#>  8 model.mpg     0.000304
#>  9 model.cyl     0.000304
#> 10 model.disp    0.000304
#> # ℹ 15 more rows
```
…
